{
  "coin": {
    "from": "0xe89a52f807f1c13dd8643d7eba14a9331be44b7d",
    "data": {
      "type": "coin",
      "inputs": [
        {
          "address": "0xe89a52f807f1c13dd8643d7eba14a9331be44b7d",
          "amount": 250000000000
        }
      ],
      "outputs": [
        {
          "address": "0xe89a52f807f1c13dd8643d7eba14a9331be44b7d",
          "amount": 250000000000
        }
      ],
      "comission": 0
    },
    "publicKey": "914bf2e8024f35850513c6bd15275ac49d5d2b7881d418b13af2eb41495729bc2dffcdafab5b00159983bad6720439f29d22e3f26afc2e8a1d64e6288570f021",
    "timestamp": 1542916993670,
    "_signature": "304402205fc29173e965e16e4e8780198c0a87191bccaa913271f33c694a004f50b8569302202b2911b453a5c95e59974ffd2282e546159aeb47ced7e08ddb3199b296c7467e",
    "hash": "585c08e11bbd523a9ee8a59b8db451b1d40b101bfa6ec801e2885bea494f1ad7"
  },
  "block": {
    "index": 0,
    "previousHash": "0",
    "timestamp": 1542916993,
    "generator": "0xe89a52f807f1c13dd8643d7eba14a9331be44b7d",
    "txs": [
      {
        "from": "0xe89a52f807f1c13dd8643d7eba14a9331be44b7d",
        "data": {
          "type": "coin",
          "inputs": [
            {
              "address": "0xe89a52f807f1c13dd8643d7eba14a9331be44b7d",
              "amount": 250000000000
            }
          ],
          "outputs": [
            {
              "address": "0xe89a52f807f1c13dd8643d7eba14a9331be44b7d",
              "amount": 250000000000
            }
          ],
          "comission": 0
        },
        "publicKey": "914bf2e8024f35850513c6bd15275ac49d5d2b7881d418b13af2eb41495729bc2dffcdafab5b00159983bad6720439f29d22e3f26afc2e8a1d64e6288570f021",
        "timestamp": 1542916993670,
        "_signature": "304402205fc29173e965e16e4e8780198c0a87191bccaa913271f33c694a004f50b8569302202b2911b453a5c95e59974ffd2282e546159aeb47ced7e08ddb3199b296c7467e",
        "hash": "585c08e11bbd523a9ee8a59b8db451b1d40b101bfa6ec801e2885bea494f1ad7"
      }
    ],
    "baseTarget": 153722867,
    "generationSignature": "6c24c7d77d9637911e352d222be088d39c606cec3b1b56212f253176ec0b0b6b",
    "cumulativeDifficulty": 0,
    "publicKey": "914bf2e8024f35850513c6bd15275ac49d5d2b7881d418b13af2eb41495729bc2dffcdafab5b00159983bad6720439f29d22e3f26afc2e8a1d64e6288570f021",
    "hash": "303cb75a2fa5bfd06d6d0a64072fdcc0ec8f6472d5d3da15d3b82b4312178a0d"
  }
}
